#define close_disabled_width 9
#define close_disabled_height 9
static char close_disabled_bits[] = {
  0xFF, 0x01, 0x7D, 0x01, 0xFF, 0x01, 0xD7, 0x01, 0xEF, 0x01, 0xD7, 0x01, 
  0xFF, 0x01, 0x7D, 0x01, 0xFF, 0x01, };
