#define desk_disabled_width 9
#define desk_disabled_height 9
static char desk_disabled_bits[] = {
  0xFF, 0x01, 0x7D, 0x01, 0xFF, 0x01, 0xFF, 0x01, 0xFF, 0x01, 0xFF, 0x01, 
  0xFF, 0x01, 0x7D, 0x01, 0xFF, 0x01, };
