#define max_pressed_width 9
#define max_pressed_height 9
static char max_pressed_bits[] = {
  0xFF, 0x01, 0x01, 0x01, 0x7D, 0x01, 0x7D, 0x01, 0x7D, 0x01, 0x7D, 0x01, 
  0x7D, 0x01, 0x01, 0x01, 0xFF, 0x01, };
