#define shade_disabled_width 9
#define shade_disabled_height 9
static char shade_disabled_bits[] = {
  0xFF, 0x01, 0xFF, 0x01, 0xFF, 0x01, 0xC7, 0x01, 0x39, 0x01, 0xFF, 0x01, 
  0xFF, 0x01, 0xFF, 0x01, 0xFF, 0x01, };
