/* XPM */
static char *bullet[] = {
/* columns rows colors chars-per-pixel */
"16 16 12 1 ",
"  c #59636C",
". c #516577",
"X c #526478",
"o c #526678",
"O c #51667A",
"+ c #50667B",
"@ c gray38",
"# c #1A75D0",
"$ c #1976D1",
"% c #1A76D0",
"& c #1976D2",
"* c None",
/* pixels */
"****************",
"*****@**********",
"**** @@*********",
"****%.@@********",
"****&$+@@*******",
"*****&$+@@******",
"******&$+@@*****",
"*******&$+@@****",
"*******&$O@@****",
"******&#X@@*****",
"*****&$O@@******",
"****&$O@@*******",
"****%o@@********",
"**** @@*********",
"*****@**********",
"****************"
};
