/* XPM */
static char *maximize_active[] = {
/* columns rows colors chars-per-pixel */
"24 24 72 1 ",
"  c #626262",
". c #646464",
"X c #656565",
"o c #676767",
"O c #686868",
"+ c #6F6F6F",
"@ c #747474",
"# c #767676",
"$ c gray47",
"% c #7B7B7B",
"& c #64B5F6",
"* c #6BB8F6",
"= c #6DB9F6",
"- c #868686",
"; c gray53",
": c gray57",
"> c gray60",
", c #9A9A9A",
"< c #A7A7A7",
"1 c gray66",
"2 c #A9A9A9",
"3 c #ACACAC",
"4 c #B4B4B4",
"5 c #B6B6B6",
"6 c gray72",
"7 c #B9B9B9",
"8 c gray73",
"9 c #BBBBBB",
"0 c #81C3F8",
"q c #85C5F8",
"w c #86C5F8",
"e c #87C6F8",
"r c #BCDFFB",
"t c #BDDFFB",
"y c #BDE0FB",
"u c #C6C6C6",
"i c gray79",
"p c #CACACA",
"a c #CBCBCB",
"s c #D0D0D0",
"d c gray83",
"f c #D5D5D5",
"g c #D7D7D7",
"h c gray86",
"j c gainsboro",
"k c gray87",
"l c #DFDFDF",
"z c gray88",
"x c #E1E1E1",
"c c gray89",
"v c #E4E4E4",
"b c gray90",
"n c #E6E6E6",
"m c gray91",
"M c #E9E9E9",
"N c gray92",
"B c #ECECEC",
"V c #EEEEEE",
"C c #EFEFEF",
"Z c #EFF7FE",
"A c #F1F1F1",
"S c #F3F3F3",
"D c #F4F4F4",
"F c #F6F6F6",
"G c gray97",
"H c #F8F8F8",
"J c gray98",
"K c #FBFDFF",
"L c gray99",
"P c #FDFDFD",
"I c #FEFEFE",
"U c white",
/* pixels */
"LLLLLLLLLLLLLLLLLLLLLLLL",
"HHHHHHHHHHHHHHHHHHHHHHHH",
"SSSSSSSSSSSSSSSSSSSSSSSS",
"CCCCCCCCCCCCCCCCCCCCCCCC",
"NNNNNNNNCFLIILFVNNNNNNNN",
"mmmmmmMFUUUUUUUIBMmmmmmm",
"bbbbbnHUKrq**qtKUvcbbbbb",
"cccccDUZ0&&&&&&0ZUpzcccc",
"xxxxnUK0&&&&&&&&0KP2xxxx",
"llllAUr&&&&&&&&&&yU8illl",
"llllJUq&&&&&&&&&&wUv>lll",
"kkkkPU*&&&&&&&&&&*UG#kkk",
"hhhhPU*&&&&&&&&&&=UFohhh",
"ggggHUq&&&&&&&&&&wUvOggg",
"ssssNUt&&&&&&&&&&yU6@sss",
"aaaadIK0&&&&&&&&0KP%:aaa",
"99999jUZ0&&&&&&0ZU9 3999",
"666668lUKyw**eyKUf.-6666",
"5555555uPUUUUUUP9.$45555",
"55555554,7vHHv6% -455555",
"555555555<;+XX+;15555555",
"555555555555555555555555",
"555555555555555555555555",
"555555555555555555555555"
};
