/* XPM */
static char *menu_active[] = {
/* columns rows colors chars-per-pixel */
"32 24 19 1 ",
"  c #1460AA",
". c #1461AC",
"X c #1563AF",
"o c #4081C1",
"O c #4D8AC7",
"+ c #5A94CD",
"@ c #659DD4",
"# c #71A4D7",
"$ c #7EACD8",
"% c #8AB2D9",
"& c #96B9DC",
"* c #A2C0DF",
"= c #AFC8E2",
"- c #BBD0E5",
"; c #C7D8E9",
": c #D4E0ED",
"> c #DFE9F2",
", c #ECF2F7",
"< c #F8FAFC",
/* pixels */
"<<<<<<<<<<<<<<<<<<<<<<<<<<<<<<<<",
",,,,,,,,,,,,,,,,,,,,,,,,,,,,,,,,",
">>>>>>>>>>>>>>>>>>>>>>>>>>>>>>>>",
"::::::::::::::::::::::::::::::::",
";;;;;;;;;;;;;;;;;;;;;;;;;;;;;;;;",
"--------------------------------",
"================================",
"********************************",
"&&&&&&&&&&&&&&&&&&&&&&&&&&&&&&&&",
"%%%%%%%%%%%%%%%%%%%%%%%%%%%%%%%%",
"$$$$$$$$$$$$$$$$$$$$$$$$$$$$$$$$",
"################################",
"@@@@@@@@@@@@@@@@@@@@@@@@@@@@@@@@",
"++++++++++++++++++++++++++++++++",
"OOOOOOOOOOOOOOOOOOOOOOOOOOOOOOOO",
"oooooooooooooooooooooooooooooooo",
"XXXXXXXXXXXXXXXXXXXXXXXXXXXXXXXX",
"................................",
"                                ",
"                                ",
"                                ",
"                                ",
"                                ",
"                                "
};
