#define max_toggled_hover_width 10
#define max_toggled_hover_height 10
static char max_toggled_hover_bits[] = {
  0x00, 0x00, 0x00, 0x00, 0xF8, 0x00, 0x88, 0x00, 0xBE, 0x00, 0xA2, 0x00, 
  0xE2, 0x00, 0x3E, 0x00, 0x00, 0x00, 0x00, 0x00, };
